{
  "project_info": {
    "project_number": "1032133468345",
    "firebase_url": "https://android-project-2020-be525.firebaseio.com",
    "project_id": "android-project-2020-be525",
    "storage_bucket": "android-project-2020-be525.appspot.com"
  },
  "client": [
    {
      "client_info": {
        "mobilesdk_app_id": "1:1032133468345:android:92d9cc8e7d0a8f2ed5bb68",
        "android_client_info": {
          "package_name": "com.morgonus.android_project_2020"
        }
      },
      "oauth_client": [
        {
          "client_id": "1032133468345-li3rtd2ap2rie2gilvh9eevc45fss4lr.apps.googleusercontent.com",
          "client_type": 3
        }
      ],
      "api_key": [
        {
          "current_key": "AIzaSyD2GNUrOo7-gcwpaF0-_-N3gfwPAUkoNY0"
        }
      ],
      "services": {
        "appinvite_service": {
          "other_platform_oauth_client": [
            {
              "client_id": "1032133468345-li3rtd2ap2rie2gilvh9eevc45fss4lr.apps.googleusercontent.com",
              "client_type": 3
            }
          ]
        }
      }
    }
  ],
  "configuration_version": "1"
}